Machine Learning Models Exercise – Talia C. Swanson’s Data Analysis Portfolio
…
Fitting the Models

lin_mod <- linear_reg() %>%
  set_engine("lm")

lin_wf <- workflow() %>%
  add_recipe(rec) %>%
  add_model(lin_mod)

lin_fit <- lin_wf %>% fit(data)
lin_pred <- predict(lin_fit, data) %>% bind_cols(data)
lin_pred

# A tibble: 120 × 8
   .pred     Y  DOSE   AGE SEX      WT    HT    BMI
   <dbl> <dbl> <dbl> <dbl> <fct> <dbl> <dbl>  <dbl>
 1 1566. 2691.    25    42 1      94.3  1.77 21160.
 2 1832. 2639.    25    24 1      80.4  1.76 18250.
 3 1916. 2150.    25    31 1      71.8  1.81 15410.
 4 1568. 1789.    25    46 2      77.4  1.65 19986.
 5 2182. 3126.    25    41 2      64.3  1.56 18573.
 6 1793. 2337.    25    27 1      74.1  1.83 15557.
 7 1557. 3007.    25    23 1      87.9  1.85 18053.
 8 2398. 2796.    25    20 1      61.9  1.73 14538.
 9 2490. 3866.    25    23 1      65.3  1.65 16865.
10 1408. 1762.    25    28 1     104.   1.84 21491.
# ℹ 110 more rows
…
